Client for the World Bank API • worldbank
…
# or fetch all (default)
wb_country()
#> # A tibble: 296 × 18
#>   country_id country_code country_name        region_id region_code region_value
#>   <chr>      <chr>        <chr>               <chr>     <chr>       <chr>       
#> 1 ABW        AW           Aruba               LCN       ZJ          Latin Ameri…
#> 2 AFE        ZH           Africa Eastern and… NA        NA          Aggregates  
#> 3 AFG        AF           Afghanistan         SAS       8S          South Asia  
#> 4 AFR        A9           Africa              NA        NA          Aggregates  
#> 5 AFW        ZI           Africa Western and… NA        NA          Aggregates  
#> # ℹ 291 more rows
#> # ℹ 12 more variables: admin_region_id <chr>, admin_region_code <chr>,
#> #   admin_region_value <chr>, income_level_id <chr>, income_level_code <chr>,
#> #   income_level_value <chr>, lending_type_id <chr>, lending_type_code <chr>,
#> #   lending_type_value <chr>, capital_city <chr>, longitude <dbl>,
#> #   latitude <dbl>

# search for specific indicator
ind <- wb_indicator()
ind <- subset(
  ind, grepl("GDP", id, fixed = TRUE) & source_value == "World Development Indicators"
)
ind
#> # A tibble: 35 × 9
#>   id          name  unit  source_id source_value source_note source_organization
#>   <chr>       <chr> <chr> <chr>     <chr>        <chr>       <chr>              
#> 1 EG.GDP.PUS… GDP … <NA>  2         World Devel… GDP per un… IEA Statistics © O…
#> 2 EG.GDP.PUS… GDP … <NA>  2         World Devel… GDP per un… IEA Statistics © O…
#> 3 ER.GDP.FWT… Wate… <NA>  2         World Devel… Water prod… Food and Agricultu…
#> 4 NY.GDP.COA… Coal… <NA>  2         World Devel… Coal rents… World Bank staff e…
#> 5 NY.GDP.DEF… Infl… <NA>  2         World Devel… Inflation … World Bank nationa…
#> # ℹ 30 more rows
#> # ℹ 2 more variables: topic_id <chr>, topic_value <chr>

# fetch indicator data for specific or all countries (default)
gdp <- wb_country_indicator("NY.GDP.MKTP.CD", c("US", "DE", "FR", "CH", "JP"))
gdp
#> # A tibble: 295 × 10
#>    date indicator_id indicator_name country_id country_name country_code   value
#>   <int> <chr>        <chr>          <chr>      <chr>        <chr>          <dbl>
#> 1  2022 NY.GDP.MKTP… GDP (current … CH         Switzerland  CHE          8.18e11
#> 2  2021 NY.GDP.MKTP… GDP (current … CH         Switzerland  CHE          8.13e11
#> 3  2020 NY.GDP.MKTP… GDP (current … CH         Switzerland  CHE          7.42e11
#> 4  2019 NY.GDP.MKTP… GDP (current … CH         Switzerland  CHE          7.21e11
#> 5  2018 NY.GDP.MKTP… GDP (current … CH         Switzerland  CHE          7.26e11
#> # ℹ 290 more rows
#> # ℹ 3 more variables: unit <chr>, obs_status <chr>, decimal <int>
…
