…
# specifiy the input
wb_country(c("US", "DE"))
#> # A tibble: 2 × 18
#>   country_id country_code country_name  region_id region_code region_value
#>   <chr>      <chr>        <chr>         <chr>     <chr>       <chr>
#> 1 DEU        DE           Germany       ECS       Z7          Europe & Central …
#> 2 USA        US           United States NAC       XU          North America
#> # ℹ 12 more variables: admin_region_id <chr>, admin_region_code <chr>,
#> #   admin_region_value <chr>, income_level_id <chr>, income_level_code <chr>,
#> #   income_level_value <chr>, lending_type_id <chr>, lending_type_code <chr>,
#> #   lending_type_value <chr>, capital_city <chr>, longitude <dbl>,
#> #   latitude <dbl>
# or fetch all (default)
wb_country()
#> # A tibble: 297 × 18
#>    country_id country_code country_name       region_id region_code region_value
#>    <chr>      <chr>        <chr>              <chr>     <chr>       <chr>
#>  1 ABW        AW           Aruba              LCN       ZJ          Latin Ameri…
#>  2 AFE        ZH           Africa Eastern an… NA        NA          Aggregates
#>  3 AFG        AF           Afghanistan        SAS       8S          South Asia
#>  4 AFR        A9           Africa             NA        NA          Aggregates
#>  5 AFW        ZI           Africa Western an… NA        NA          Aggregates
#>  6 AGO        AO           Angola             SSF       ZG          Sub-Saharan…
#>  7 ALB        AL           Albania            ECS       Z7          Europe & Ce…
#>  8 AND        AD           Andorra            ECS       Z7          Europe & Ce…
#>  9 ARB        1A           Arab World         NA        NA          Aggregates
#> 10 ARE        AE           United Arab Emira… MEA       ZQ          Middle East…
#> # ℹ 287 more rows
#> # ℹ 12 more variables: admin_region_id <chr>, admin_region_code <chr>,
#> #   admin_region_value <chr>, income_level_id <chr>, income_level_code <chr>,
#> #   income_level_value <chr>, lending_type_id <chr>, lending_type_code <chr>,
#> #   lending_type_value <chr>, capital_city <chr>, longitude <dbl>,
#> #   latitude <dbl>
```
…
