World Bank available languages — wb_language • worldbank
…
    See also

    Other indicators data:
wb_country(),
wb_income_level(),
wb_indicator(),
wb_lending_type(),
wb_region(),
wb_source(),
wb_topic()

    Examples

wb_language()
#> # A tibble: 23 × 3
#>    code  name       native_form     
#>    <chr> <chr>      <chr>           
#>  1 en    English    English         
#>  2 es    Spanish    Español         
#>  3 fr    French     Français        
#>  4 ar    Arabic     عربي            
#>  5 zh    Chinese    中文            
#>  6 bg    Bulgarian  Български       
#>  7 de    German     Deutsch         
#>  8 hi    Hindi      हिंदी            
#>  9 id    Indonesian Bahasa indonesia
#> 10 ja    Japanese   日本語          
#> # ℹ 13 more rows
…
