World Bank source data — wb_source • worldbank
…
metadata_availability
Whether the source has metadata available.

concepts
The concepts associated with the source.

    References

    http://api.worldbank.org/v2/sources

    Examples

wb_source()
#> # A tibble: 67 × 9
#>       id last_updated name             code  description url   data_availability
#>    <int> <date>       <chr>            <chr> <chr>       <chr> <lgl>            
#>  1     1 2021-08-18   Doing Business   DBS   NA          NA    TRUE             
#>  2     2 2023-10-26   World Developme… WDI   NA          NA    TRUE             
#>  3     3 2023-09-29   Worldwide Gover… WGI   NA          NA    TRUE             
#>  4     5 2016-03-21   Subnational Mal… SNM   NA          NA    TRUE             
#>  5     6 2022-12-06   International D… IDS   NA          NA    TRUE             
#>  6    11 2013-02-22   Africa Developm… ADI   NA          NA    TRUE             
#>  7    12 2023-10-12   Education Stati… EDS   NA          NA    TRUE             
#>  8    13 2022-03-25   Enterprise Surv… ESY   NA          NA    TRUE             
#>  9    14 2023-10-30   Gender Statisti… GDS   NA          NA    TRUE             
#> 10    15 2023-11-29   Global Economic… GEM   NA          NA    TRUE             
#> # ℹ 57 more rows
#> # ℹ 2 more variables: metadata_availability <lgl>, concepts <int>
…
